<svg viewBox="0 0 13 3" fill="none" xmlns="http://www.w3.org/2000/svg">
    <path d="M0 0.000349503V2.99999H4.81119H8.04746L13 3V1.30842e-05L8.18881 5.08463e-07L4.95254 0L0 0.000349503Z" fill="#F7A500"/>
</svg>
