<svg viewBox="0 0 53 67" fill="none" xmlns="http://www.w3.org/2000/svg">
    <path fill-rule="evenodd" clip-rule="evenodd" d="M10.3696 13.8179C9.73324 13.8179 9.21739 13.3023 9.21739 12.6664C9.21739 12.0304 9.73324 11.5149 10.3696 11.5149H42.6304C43.2668 11.5149 43.7826 12.0304 43.7826 12.6664C43.7826 13.3023 43.2668 13.8179 42.6304 13.8179H10.3696ZM10.3696 25.3327C9.73324 25.3327 9.21739 24.8172 9.21739 24.1813C9.21739 23.5453 9.73324 23.0298 10.3696 23.0298H42.6304C43.2668 23.0298 43.7826 23.5453 43.7826 24.1813C43.7826 24.8172 43.2668 25.3327 42.6304 25.3327H10.3696ZM10.3696 36.8476C9.73324 36.8476 9.21739 36.3321 9.21739 35.6961C9.21739 35.0602 9.73324 34.5447 10.3696 34.5447H42.6304C43.2668 34.5447 43.7826 35.0602 43.7826 35.6961C43.7826 36.3321 43.2668 36.8476 42.6304 36.8476H10.3696ZM10.3696 48.3625C9.73324 48.3625 9.21739 47.847 9.21739 47.211C9.21739 46.5751 9.73324 46.0595 10.3696 46.0595H19.587C20.2233 46.0595 20.7391 46.5751 20.7391 47.211C20.7391 47.847 20.2233 48.3625 19.587 48.3625H10.3696Z" fill="url(#state_register1)"/>
    <path fill-rule="evenodd" clip-rule="evenodd" d="M48.3913 66.7863H1.15217C0.515846 66.7863 0 66.2708 0 65.6348V1.15149C0 0.515539 0.515846 0 1.15217 0H51.8478C52.4842 0 53 0.515539 53 1.15149V65.6348C53 66.2708 52.4842 66.7863 51.8478 66.7863H48.3913ZM48.3913 64.4834H2.30435V2.30298H50.6957V64.4834H48.3913Z" fill="url(#state_register1)"/>
    <defs>
        <linearGradient id="state_register1" x1="0" y1="33.4546" x2="52.9924" y2="33.4546" gradientUnits="userSpaceOnUse">
            <stop offset="0" stop-color="#00B1EB"/>
            <stop offset="0.494792" stop-color="#007AC1"/>
            <stop offset="1" stop-color="#0059A6"/>
        </linearGradient>
    </defs>
</svg>
